…
``` r
library(dplyr)
library(ersst)

online_db <- ncdc_list_available(version = "v5", verbose = TRUE)
```

    ## ncdc_list_available: GETting https://www.ncei.noaa.gov/pub/data/cmb/ersst/v5/netcdf/

``` r
online_db
```

    ## # A tibble: 2,007 x 3
    ##    date       anomaly version
    ##    <date>     <lgl>   <chr>  
    ##  1 1854-01-01 FALSE   v5     
    ##  2 1854-02-01 FALSE   v5     
    ##  3 1854-03-01 FALSE   v5     
    ##  4 1854-04-01 FALSE   v5     
    ##  5 1854-05-01 FALSE   v5     
    ##  6 1854-06-01 FALSE   v5     
    ##  7 1854-07-01 FALSE   v5     
    ##  8 1854-08-01 FALSE   v5     
    ##  9 1854-09-01 FALSE   v5     
    ## 10 1854-10-01 FALSE   v5     
    ## # … with 1,997 more rows
…
